{
    "_links": [
        {
            "rel": "self",
            "href": "https://api.myob.com/au/essentials/base?page=3&size=2"
        },
        {
            "rel": "previous",
            "href": "https://api.myob.com/au/essentials/base?page=2&size=2"
        }
    ],
    "items": [
        {
            "uid": "5",
            "_links": [
                {
                    "rel": "self",
                    "href": "https://api.myob.com/au/essentials/base/5"
                }
            ]
        }
    ],
    "page": {
        "size": 2,
        "totalElements": 5,
        "totalPages": 3,
        "number": 3
    }
}