{
    "_links": [
        {
            "rel": "self",
            "href": "https://api.myob.com/au/essentials/base"
        },
        {
            "rel": "next",
            "href": "https://api.myob.com/au/essentials/base?page=2&size=2"
        }
    ],
    "items": [
        {
            "uid": "1",
            "_links": [
                {
                    "rel": "self",
                    "href": "https://api.myob.com/au/essentials/base/1"
                }
            ]
        },
        {
            "uid": "2",
            "_links": [
                {
                    "rel": "self",
                    "href": "https://api.myob.com/au/essentials/base/2"
                }
            ]
        }
    ],
    "page": {
        "size": 2,
        "totalElements": 5,
        "totalPages": 3,
        "number": 1
    }
}